\relax 
\catcode `"\active 
\select@language{basque}
\@writefile{toc}{\select@language{basque}}
\@writefile{lof}{\select@language{basque}}
\@writefile{lot}{\select@language{basque}}
\@writefile{toc}{\contentsline {section}{\numberline {1}Sarrera}{3}}
\@writefile{toc}{\contentsline {section}{\numberline {2}Exekuzio Konkurrentea}{3}}
\@writefile{toc}{\contentsline {subsection}{\numberline {2.1}Prozesuak eta hariak}{3}}
\@writefile{toc}{\contentsline {section}{\numberline {3}Zuzentasuna}{3}}
\@writefile{toc}{\contentsline {subsection}{\numberline {3.1}Elkar-Blokeaketa}{3}}
\@writefile{toc}{\contentsline {subsection}{\numberline {3.2}Segurtasun Propietateak}{4}}
\@writefile{toc}{\contentsline {subsection}{\numberline {3.3}Bizitasun propietateak}{4}}
\@writefile{toc}{\contentsline {subsubsection}{\numberline {3.3.1}Aurrerapen Propietateak}{4}}
\@writefile{toc}{\contentsline {section}{\numberline {4}Denbora Errealeko Sistemak}{4}}
