\select@language {basque}
\contentsline {section}{\numberline {1}Sarrera}{3}
\contentsline {section}{\numberline {2}Exekuzio Konkurrentea}{3}
\contentsline {subsection}{\numberline {2.1}Prozesuak eta hariak}{3}
\contentsline {section}{\numberline {3}Zuzentasuna}{3}
\contentsline {subsection}{\numberline {3.1}Elkar-Blokeaketa}{3}
\contentsline {subsection}{\numberline {3.2}Segurtasun Propietateak}{4}
\contentsline {subsection}{\numberline {3.3}Bizitasun propietateak}{4}
\contentsline {subsubsection}{\numberline {3.3.1}Aurrerapen Propietateak}{4}
\contentsline {section}{\numberline {4}Denbora Errealeko Sistemak}{4}
